<!-- Generated by IcoMoon.io -->
<svg version="1.1" xmlns="http://www.w3.org/2000/svg" width="32" height="32" viewBox="0 0 32 32">
<title>error</title>
<path fill="#f74a4a" d="M20.316 16l10.79 10.79c1.192 1.192 1.192 3.124 0 4.316s-3.124 1.192-4.316 0l-10.79-10.79-10.79 10.79c-1.192 1.192-3.124 1.192-4.316 0s-1.192-3.124 0-4.316l10.79-10.79-10.79-10.79c-1.192-1.192-1.192-3.124 0-4.316s3.124-1.192 4.316 0l10.79 10.79 10.79-10.79c1.192-1.192 3.124-1.192 4.316 0s1.192 3.124 0 4.316l-10.79 10.79z"></path>
</svg>
