<!-- Generated by IcoMoon.io -->
<svg version="1.1" xmlns="http://www.w3.org/2000/svg" width="32" height="32" viewBox="0 0 32 32">
<title>warning</title>
<path fill="#ffce52" d="M17.835 4.007l13.823 21.642c0.647 1.013 0.35 2.36-0.663 3.007-0.35 0.224-0.757 0.342-1.172 0.342h-27.645c-1.203 0-2.177-0.975-2.177-2.177 0-0.415 0.119-0.822 0.342-1.172l13.822-21.642c0.647-1.013 1.994-1.31 3.007-0.663 0.267 0.17 0.493 0.396 0.663 0.663z"></path>
<path fill="#1c1b1b" d="M14.432 14.856l-0.118-2.9h3.371l-0.118 2.9-0.47 5.448h-2.195l-0.47-5.448zM14.040 23.283c0-0.575 0.183-1.058 0.549-1.45s0.836-0.588 1.411-0.588c0.575 0 1.045 0.196 1.411 0.588s0.549 0.875 0.549 1.45c0 0.575-0.183 1.058-0.549 1.45s-0.836 0.588-1.411 0.588c-0.575 0-1.045-0.196-1.411-0.588s-0.549-0.875-0.549-1.45z"></path>
</svg>
