<?xml version="1.0" encoding="UTF-8"?>
<svg width="73px" height="64px" viewBox="0 0 73 64" version="1.1" xmlns="http://www.w3.org/2000/svg" xmlns:xlink="http://www.w3.org/1999/xlink">
    <!-- Generator: Sketch 48.1 (47250) - http://www.bohemiancoding.com/sketch -->
    <title>Illustrations/mail</title>
    <desc>Created with Sketch.</desc>
    <defs></defs>
    <g id="ExtraSmall/Company-Signup" stroke="none" stroke-width="1" fill="none" fill-rule="evenodd" transform="translate(-151.000000, -1670.000000)">
        <g id="content">
            <g id="Call-to-Action-#8" transform="translate(0.000000, 1188.000000)">
                <g id="Stacked-Group-2" transform="translate(15.000000, 482.000000)">
                    <g id="Illustrations/mail" transform="translate(136.000000, 0.000000)">
                        <g id="letter" transform="translate(6.032258, 0.000000)" fill-rule="nonzero">
                            <path d="M1.00537634,21.3333333 L26.5419355,1.93333333 C28.7537634,0.266666667 32.3731183,0.333333333 34.5849462,2 L59.9874552,21.3333333 L1.00537634,21.3333333 Z" id="Shape" fill="#FFFFFF"></path>
                            <polygon id="Shape" fill="#CFCCCE" points="9.24946237 14.6666667 51.8774194 14.6666667 41.3544803 6.66666667 19.8394265 6.66666667"></polygon>
                            <path d="M59.6523297,58.2666667 C59.6523297,61.0666667 57.7756272,63.3333333 54.9605735,63.3333333 L6.09928315,63.3333333 C3.28422939,63.3333333 0.670250896,61.0666667 0.670250896,58.2666667 L0.670250896,21.3333333 L59.6523297,21.3333333 L59.6523297,58.2666667 Z" id="Shape" fill="#FFFFFF"></path>
                            <path d="M59.3842294,22 C59.3842294,22 59.3842294,22 59.3842294,22 L1.07240143,22 C0.804301075,22 0.536200717,21.8 0.469175627,21.5333333 C0.402150538,21.2666667 0.469175627,20.9333333 0.670250896,20.8 L26.1397849,1.4 C27.2792115,0.466666667 28.8207885,0 30.4964158,0 C32.172043,0 33.7806452,0.533333333 35.0541219,1.46666667 L59.7193548,20.8 C59.9204301,20.9333333 60.0544803,21.1333333 60.0544803,21.4 C60.0544803,21.7333333 59.7193548,22 59.3842294,22 Z M3.01612903,20.6666667 L57.4405018,20.6666667 L34.1827957,2.46666667 C33.2444444,1.73333333 31.8369176,1.33333333 30.4964158,1.33333333 C29.155914,1.33333333 27.8824373,1.73333333 26.944086,2.4 L3.01612903,20.6666667 Z" id="Shape" fill="#1C1B1B"></path>
                            <path d="M55.6308244,42.6666667 C55.6308244,45.6 53.2179211,48 50.2688172,48 L10.7240143,48 C7.77491039,48 5.36200717,45.6 5.36200717,42.6666667 L5.36200717,15.3333333 C5.36200717,12.4 7.77491039,10 10.7240143,10 L50.2688172,10 C53.2179211,10 55.6308244,12.4 55.6308244,15.3333333 L55.6308244,42.6666667 Z" id="Shape" fill="#FFFFFF"></path>
                            <polygon id="Shape" fill="#EAEAEA" points="30.2953405 37.5333333 5.49605735 19.1333333 5.49605735 47.6 55.5637993 47.6 55.5637993 18.8"></polygon>
                            <path d="M36.0594982,16.0666667 L48.59319,16.0666667" id="Shape" fill="#FFFFFF"></path>
                            <path d="M12.1315412,16.0666667 L30.0272401,16.0666667" id="Shape" fill="#FFFFFF"></path>
                            <path d="M30.0272401,16.6666667 L12.0645161,16.6666667 C11.6623656,16.6666667 11.3942652,16.4 11.3942652,16 C11.3942652,15.6 11.6623656,15.3333333 12.0645161,15.3333333 L30.0272401,15.3333333 C30.4293907,15.3333333 30.697491,15.6 30.697491,16 C30.697491,16.4 30.4293907,16.6666667 30.0272401,16.6666667 Z M44.2365591,20.6666667 L24.7992832,20.6666667 C24.3971326,20.6666667 24.1290323,20.4 24.1290323,20 C24.1290323,19.6 24.3971326,19.3333333 24.7992832,19.3333333 L44.2365591,19.3333333 C44.6387097,19.3333333 44.90681,19.6 44.90681,20 C44.90681,20.4 44.6387097,20.6666667 44.2365591,20.6666667 Z M12.1315412,20.6666667 L20.2415771,20.6666667 L12.1315412,20.6666667 Z M48.9283154,25.3333333 L41.6225806,25.3333333 C41.2204301,25.3333333 40.9523297,25.0666667 40.9523297,24.6666667 C40.9523297,24.2666667 41.2874552,24 41.6225806,24 L48.9283154,24 C49.3304659,24 49.5985663,24.2666667 49.5985663,24.6666667 C49.5985663,25.0666667 49.2634409,25.3333333 48.9283154,25.3333333 Z M37.5340502,25.3333333 L29.4910394,25.3333333 C29.0888889,25.3333333 28.8207885,25.0666667 28.8207885,24.6666667 C28.8207885,24.2666667 29.155914,24 29.4910394,24 L37.5340502,24 C37.9362007,24 38.2043011,24.2666667 38.2043011,24.6666667 C38.2043011,25.0666667 37.8691756,25.3333333 37.5340502,25.3333333 Z M25.4695341,25.3333333 L12.0645161,25.3333333 C11.6623656,25.3333333 11.3942652,25.0666667 11.3942652,24.6666667 C11.3942652,24.2666667 11.7293907,24 12.0645161,24 L25.4695341,24 C25.8716846,24 26.1397849,24.2666667 26.1397849,24.6666667 C26.1397849,25.0666667 25.8046595,25.3333333 25.4695341,25.3333333 Z M43.4992832,29.3333333 L36.2605735,29.3333333 C35.8584229,29.3333333 35.5232975,29.0666667 35.5232975,28.6666667 C35.5232975,28.2666667 35.8584229,28 36.2605735,28 L43.5663082,28 C43.9684588,28 44.3035842,28.2666667 44.3035842,28.6666667 C44.3035842,29.0666667 43.9014337,29.3333333 43.4992832,29.3333333 Z M30.1612903,29.3333333 L12.0645161,29.3333333 C11.7293907,29.3333333 11.3942652,29.0666667 11.3942652,28.6666667 C11.3942652,28.2666667 11.6623656,28 12.0645161,28 L30.1612903,28 C30.4964158,28 30.8315412,28.2666667 30.8315412,28.6666667 C30.8315412,29.0666667 30.5634409,29.3333333 30.1612903,29.3333333 Z M22.7885305,34 L12.1315412,34 C11.7293907,34 11.4612903,33.7333333 11.4612903,33.3333333 C11.4612903,32.9333333 11.7964158,32.6666667 12.1315412,32.6666667 L22.7885305,32.6666667 C23.190681,32.6666667 23.4587814,32.9333333 23.4587814,33.3333333 C23.4587814,33.7333333 23.1236559,34 22.7885305,34 Z M37.4670251,34 L26.8100358,34 C26.4078853,34 26.1397849,33.7333333 26.1397849,33.3333333 C26.1397849,32.9333333 26.4749104,32.6666667 26.8100358,32.6666667 L37.4670251,32.6666667 C37.8691756,32.6666667 38.137276,32.9333333 38.137276,33.3333333 C38.137276,33.7333333 37.8691756,34 37.4670251,34 Z M48.59319,37.9333333 L12.1315412,37.9333333 C11.7293907,37.9333333 11.4612903,37.6666667 11.4612903,37.2666667 C11.4612903,36.8666667 11.7293907,36.6 12.1315412,36.6 L48.59319,36.6 C48.9953405,36.6 49.2634409,36.8666667 49.2634409,37.2666667 C49.2634409,37.6666667 48.9953405,37.9333333 48.59319,37.9333333 Z M48.9283154,16.6666667 L36.1935484,16.6666667 C35.7913978,16.6666667 35.5232975,16.4 35.5232975,16 C35.5232975,15.6 35.8584229,15.3333333 36.1935484,15.3333333 L48.9283154,15.3333333 C49.3304659,15.3333333 49.5985663,15.6 49.5985663,16 C49.5985663,16.4 49.2634409,16.6666667 48.9283154,16.6666667 Z" id="Combined-Shape" fill="#CFCCCE"></path>
                            <path d="M50.2688172,48.6666667 L10.7240143,48.6666667 C7.37275986,48.6666667 4.69175627,46 4.69175627,42.6666667 L4.69175627,15.3333333 C4.69175627,12 7.37275986,9.33333333 10.7240143,9.33333333 L50.2688172,9.33333333 C53.6200717,9.33333333 56.3010753,12 56.3010753,15.3333333 L56.3010753,42.6666667 C56.3010753,46 53.6200717,48.6666667 50.2688172,48.6666667 Z M10.7240143,10.6666667 C8.11003584,10.6666667 6.03225806,12.7333333 6.03225806,15.3333333 L6.03225806,42.6666667 C6.03225806,45.2666667 8.11003584,47.3333333 10.7240143,47.3333333 L50.2688172,47.3333333 C52.8827957,47.3333333 54.9605735,45.2666667 54.9605735,42.6666667 L54.9605735,15.3333333 C54.9605735,12.7333333 52.8827957,10.6666667 50.2688172,10.6666667 L10.7240143,10.6666667 Z" id="Shape" fill="#1C1B1B"></path>
                            <path d="M59.9874552,21.5333333 L33.7136201,40.9333333 C33.7136201,40.9333333 53.3519713,57.6 55.1616487,59.2 C57.0383513,60.8 57.5075269,62.5333333 57.5075269,62.5333333 C57.5075269,62.5333333 60.0544803,61.7333333 60.0544803,56.6666667 C60.0544803,51.6666667 59.9874552,21.5333333 59.9874552,21.5333333 Z" id="Shape" fill="#FFFFFF"></path>
                            <path d="M0.737275986,21.5333333 L27.0111111,40.9333333 C27.0111111,40.9333333 7.37275986,57.6 5.56308244,59.2 C3.68637993,60.8 3.2172043,62.5333333 3.2172043,62.5333333 C3.2172043,62.5333333 0.670250896,61.7333333 0.670250896,56.6666667 C0.737275986,51.6666667 0.737275986,21.5333333 0.737275986,21.5333333 Z" id="Shape" fill="#FFFFFF"></path>
                            <path d="M59.5182796,60.1333333 C59.3842294,60 59.2501792,59.8666667 59.0491039,59.6666667 L35.5232975,39.6 L33.646595,40.9333333 C33.646595,40.9333333 53.2849462,57.6 55.0946237,59.2 C56.9713262,60.8 57.4405018,62.5333333 57.4405018,62.5333333 C57.4405018,62.5333333 58.7810036,62.1333333 59.5182796,60.1333333 Z" id="Shape" fill="#EAEAEA"></path>
                            <path d="M5.56308244,59.2 C7.43978495,57.6 27.0111111,40.9333333 27.0111111,40.9333333 L25.402509,39.7333333 L2.14480287,59.6666667 C1.80967742,59.9333333 1.60860215,60.2 1.40752688,60.4 C2.14480287,62.1333333 3.28422939,62.5333333 3.28422939,62.5333333 C3.28422939,62.5333333 3.68637993,60.8 5.56308244,59.2 Z" id="Shape" fill="#EAEAEA"></path>
                            <path d="M30.5634409,44.0666667 C30.4293907,44.0666667 30.2953405,44 30.1612903,43.9333333 L0.737275986,21.6 C0.469175627,21.4 0.402150538,20.9333333 0.603225806,20.6666667 C0.804301075,20.4 1.2734767,20.3333333 1.54157706,20.5333333 L30.5634409,42.6 L58.9150538,20.5333333 C59.1831541,20.3333333 59.6523297,20.3333333 59.853405,20.6666667 C60.0544803,20.9333333 60.0544803,21.4 59.7193548,21.6 L30.9655914,43.9333333 C30.8985663,44.0666667 30.697491,44.0666667 30.5634409,44.0666667 Z" id="Shape" fill="#1C1B1B"></path>
                            <path d="M6.50143369,63.3333333 C3.55232975,63.3333333 2.94910394,61.8 5.22795699,59.8666667 L26.5419355,41.6 C28.7537634,39.6666667 32.4401434,39.6666667 34.6519713,41.6 L55.9659498,59.8666667 C58.1777778,61.8 57.6415771,63.3333333 54.6924731,63.3333333 L6.50143369,63.3333333 Z" id="Shape" fill="#FFFFFF"></path>
                            <path d="M54.9605735,55.3333333 L6.09928315,55.3333333 C3.28422939,55.3333333 1.00537634,52.8 1.00537634,50 L1.00537634,58.2 C1.00537634,61 3.28422939,63.2666667 6.09928315,63.2666667 L54.9605735,63.2666667 C57.7756272,63.2666667 60.0544803,61 60.0544803,58.2 L60.0544803,50 C60.0544803,52.8 57.7756272,55.3333333 54.9605735,55.3333333 Z" id="Shape" fill="#CFCCCE" opacity="0.400000006"></path>
                            <path d="M54.9605735,64 L6.09928315,64 C2.81505376,64 0,61.3333333 0,58.2666667 L0,21.3333333 C0,20.9333333 0.268100358,20.6666667 0.670250896,20.6666667 C1.07240143,20.6666667 1.34050179,20.9333333 1.34050179,21.3333333 L1.34050179,58.2666667 C1.34050179,60.6 3.55232975,62.6666667 6.09928315,62.6666667 L54.9605735,62.6666667 C57.3064516,62.6666667 58.9820789,60.8 58.9820789,58.2666667 L58.9820789,21.3333333 C58.9820789,20.9333333 59.2501792,20.6666667 59.6523297,20.6666667 C60.0544803,20.6666667 60.3225806,20.9333333 60.3225806,21.3333333 L60.3225806,58.2666667 C60.3225806,61.5333333 58.0437276,64 54.9605735,64 Z" id="Shape" fill="#1C1B1B"></path>
                            <path d="M54.9605735,64 L6.03225806,64 C3.68637993,64 2.94910394,63.0666667 2.74802867,62.5333333 C2.54695341,62 2.47992832,60.8666667 4.22258065,59.3333333 L25.8716846,40.9333333 C27.0781362,39.8666667 28.6867384,39.3333333 30.4293907,39.3333333 C32.172043,39.3333333 33.7806452,39.9333333 34.9870968,40.9333333 L56.7032258,59.3333333 C58.5129032,60.8666667 58.4458781,62 58.1777778,62.5333333 C57.9767025,63.0666667 57.3064516,64 54.9605735,64 Z M30.4964158,40.6666667 C29.0888889,40.6666667 27.8154122,41.1333333 26.8100358,41.9333333 L5.1609319,60.3333333 C4.22258065,61.1333333 3.95448029,61.8 4.02150538,62.0666667 C4.15555556,62.3333333 4.82580645,62.6666667 6.03225806,62.6666667 L54.9605735,62.6666667 C56.1670251,62.6666667 56.837276,62.4 56.9713262,62.0666667 C57.1053763,61.8 56.7702509,61.1333333 55.8318996,60.3333333 L34.1827957,41.9333333 C33.1774194,41.1333333 31.9039427,40.6666667 30.4964158,40.6666667 Z" id="Shape" fill="#1C1B1B"></path>
                            <path d="M56.3681004,38.3333333 L56.3681004,50.7333333" id="Shape" fill="#FFFFFF"></path>
                            <path d="M56.3681004,30.1333333 L56.3681004,35.1333333" id="Shape" fill="#FFFFFF"></path>
                        </g>
                        <rect id="Rectangle-2" fill="#1C1B1B" x="0" y="63" width="72.3870968" height="1"></rect>
                    </g>
                </g>
            </g>
        </g>
    </g>
</svg>